(kicad_sch (version 20201015) (generator eeschema)

  (page 1 1)

  (paper "A4")

  (lib_symbols
    (symbol "Connector:Conn_01x03_Male" (pin_names (offset 1.016) hide) (in_bom yes) (on_board yes)
      (property "Reference" "J" (id 0) (at 0 5.08 0)
        (effects (font (size 1.27 1.27)))
      )
      (property "Value" "Conn_01x03_Male" (id 1) (at 0 -5.08 0)
        (effects (font (size 1.27 1.27)))
      )
      (property "Footprint" "" (id 2) (at 0 0 0)
        (effects (font (size 1.27 1.27)) hide)
      )
      (property "Datasheet" "~" (id 3) (at 0 0 0)
        (effects (font (size 1.27 1.27)) hide)
      )
      (property "ki_keywords" "connector" (id 4) (at 0 0 0)
        (effects (font (size 1.27 1.27)) hide)
      )
      (property "ki_description" "Generic connector, single row, 01x03, script generated (kicad-library-utils/schlib/autogen/connector/)" (id 5) (at 0 0 0)
        (effects (font (size 1.27 1.27)) hide)
      )
      (property "ki_fp_filters" "Connector*:*_1x??_*" (id 6) (at 0 0 0)
        (effects (font (size 1.27 1.27)) hide)
      )
      (symbol "Conn_01x03_Male_1_1"
        (rectangle (start 0.8636 -2.413) (end 0 -2.667)
          (stroke (width 0.1524)) (fill (type outline))
        )
        (rectangle (start 0.8636 0.127) (end 0 -0.127)
          (stroke (width 0.1524)) (fill (type outline))
        )
        (rectangle (start 0.8636 2.667) (end 0 2.413)
          (stroke (width 0.1524)) (fill (type outline))
        )
        (polyline
          (pts
            (xy 1.27 -2.54)
            (xy 0.8636 -2.54)
          )
          (stroke (width 0.1524)) (fill (type none))
        )
        (polyline
          (pts
            (xy 1.27 0)
            (xy 0.8636 0)
          )
          (stroke (width 0.1524)) (fill (type none))
        )
        (polyline
          (pts
            (xy 1.27 2.54)
            (xy 0.8636 2.54)
          )
          (stroke (width 0.1524)) (fill (type none))
        )
        (pin passive line (at 5.08 2.54 180) (length 3.81)
          (name "Pin_1" (effects (font (size 1.27 1.27))))
          (number "1" (effects (font (size 1.27 1.27))))
        )
        (pin passive line (at 5.08 0 180) (length 3.81)
          (name "Pin_2" (effects (font (size 1.27 1.27))))
          (number "2" (effects (font (size 1.27 1.27))))
        )
        (pin passive line (at 5.08 -2.54 180) (length 3.81)
          (name "Pin_3" (effects (font (size 1.27 1.27))))
          (number "3" (effects (font (size 1.27 1.27))))
        )
      )
    )
    (symbol "Connector:Conn_01x06_Male" (pin_names (offset 1.016) hide) (in_bom yes) (on_board yes)
      (property "Reference" "J" (id 0) (at 0 7.62 0)
        (effects (font (size 1.27 1.27)))
      )
      (property "Value" "Conn_01x06_Male" (id 1) (at 0 -10.16 0)
        (effects (font (size 1.27 1.27)))
      )
      (property "Footprint" "" (id 2) (at 0 0 0)
        (effects (font (size 1.27 1.27)) hide)
      )
      (property "Datasheet" "~" (id 3) (at 0 0 0)
        (effects (font (size 1.27 1.27)) hide)
      )
      (property "ki_keywords" "connector" (id 4) (at 0 0 0)
        (effects (font (size 1.27 1.27)) hide)
      )
      (property "ki_description" "Generic connector, single row, 01x06, script generated (kicad-library-utils/schlib/autogen/connector/)" (id 5) (at 0 0 0)
        (effects (font (size 1.27 1.27)) hide)
      )
      (property "ki_fp_filters" "Connector*:*_1x??_*" (id 6) (at 0 0 0)
        (effects (font (size 1.27 1.27)) hide)
      )
      (symbol "Conn_01x06_Male_1_1"
        (rectangle (start 0.8636 -7.493) (end 0 -7.747)
          (stroke (width 0.1524)) (fill (type outline))
        )
        (rectangle (start 0.8636 -4.953) (end 0 -5.207)
          (stroke (width 0.1524)) (fill (type outline))
        )
        (rectangle (start 0.8636 -2.413) (end 0 -2.667)
          (stroke (width 0.1524)) (fill (type outline))
        )
        (rectangle (start 0.8636 0.127) (end 0 -0.127)
          (stroke (width 0.1524)) (fill (type outline))
        )
        (rectangle (start 0.8636 2.667) (end 0 2.413)
          (stroke (width 0.1524)) (fill (type outline))
        )
        (rectangle (start 0.8636 5.207) (end 0 4.953)
          (stroke (width 0.1524)) (fill (type outline))
        )
        (polyline
          (pts
            (xy 1.27 -7.62)
            (xy 0.8636 -7.62)
          )
          (stroke (width 0.1524)) (fill (type none))
        )
        (polyline
          (pts
            (xy 1.27 -5.08)
            (xy 0.8636 -5.08)
          )
          (stroke (width 0.1524)) (fill (type none))
        )
        (polyline
          (pts
            (xy 1.27 -2.54)
            (xy 0.8636 -2.54)
          )
          (stroke (width 0.1524)) (fill (type none))
        )
        (polyline
          (pts
            (xy 1.27 0)
            (xy 0.8636 0)
          )
          (stroke (width 0.1524)) (fill (type none))
        )
        (polyline
          (pts
            (xy 1.27 2.54)
            (xy 0.8636 2.54)
          )
          (stroke (width 0.1524)) (fill (type none))
        )
        (polyline
          (pts
            (xy 1.27 5.08)
            (xy 0.8636 5.08)
          )
          (stroke (width 0.1524)) (fill (type none))
        )
        (pin passive line (at 5.08 5.08 180) (length 3.81)
          (name "Pin_1" (effects (font (size 1.27 1.27))))
          (number "1" (effects (font (size 1.27 1.27))))
        )
        (pin passive line (at 5.08 2.54 180) (length 3.81)
          (name "Pin_2" (effects (font (size 1.27 1.27))))
          (number "2" (effects (font (size 1.27 1.27))))
        )
        (pin passive line (at 5.08 0 180) (length 3.81)
          (name "Pin_3" (effects (font (size 1.27 1.27))))
          (number "3" (effects (font (size 1.27 1.27))))
        )
        (pin passive line (at 5.08 -2.54 180) (length 3.81)
          (name "Pin_4" (effects (font (size 1.27 1.27))))
          (number "4" (effects (font (size 1.27 1.27))))
        )
        (pin passive line (at 5.08 -5.08 180) (length 3.81)
          (name "Pin_5" (effects (font (size 1.27 1.27))))
          (number "5" (effects (font (size 1.27 1.27))))
        )
        (pin passive line (at 5.08 -7.62 180) (length 3.81)
          (name "Pin_6" (effects (font (size 1.27 1.27))))
          (number "6" (effects (font (size 1.27 1.27))))
        )
      )
    )
    (symbol "Connector:Conn_01x08_Male" (pin_names (offset 1.016) hide) (in_bom yes) (on_board yes)
      (property "Reference" "J" (id 0) (at 0 10.16 0)
        (effects (font (size 1.27 1.27)))
      )
      (property "Value" "Conn_01x08_Male" (id 1) (at 0 -12.7 0)
        (effects (font (size 1.27 1.27)))
      )
      (property "Footprint" "" (id 2) (at 0 0 0)
        (effects (font (size 1.27 1.27)) hide)
      )
      (property "Datasheet" "~" (id 3) (at 0 0 0)
        (effects (font (size 1.27 1.27)) hide)
      )
      (property "ki_keywords" "connector" (id 4) (at 0 0 0)
        (effects (font (size 1.27 1.27)) hide)
      )
      (property "ki_description" "Generic connector, single row, 01x08, script generated (kicad-library-utils/schlib/autogen/connector/)" (id 5) (at 0 0 0)
        (effects (font (size 1.27 1.27)) hide)
      )
      (property "ki_fp_filters" "Connector*:*_1x??_*" (id 6) (at 0 0 0)
        (effects (font (size 1.27 1.27)) hide)
      )
      (symbol "Conn_01x08_Male_1_1"
        (rectangle (start 0.8636 -10.033) (end 0 -10.287)
          (stroke (width 0.1524)) (fill (type outline))
        )
        (rectangle (start 0.8636 -7.493) (end 0 -7.747)
          (stroke (width 0.1524)) (fill (type outline))
        )
        (rectangle (start 0.8636 -4.953) (end 0 -5.207)
          (stroke (width 0.1524)) (fill (type outline))
        )
        (rectangle (start 0.8636 -2.413) (end 0 -2.667)
          (stroke (width 0.1524)) (fill (type outline))
        )
        (rectangle (start 0.8636 0.127) (end 0 -0.127)
          (stroke (width 0.1524)) (fill (type outline))
        )
        (rectangle (start 0.8636 2.667) (end 0 2.413)
          (stroke (width 0.1524)) (fill (type outline))
        )
        (rectangle (start 0.8636 5.207) (end 0 4.953)
          (stroke (width 0.1524)) (fill (type outline))
        )
        (rectangle (start 0.8636 7.747) (end 0 7.493)
          (stroke (width 0.1524)) (fill (type outline))
        )
        (polyline
          (pts
            (xy 1.27 -10.16)
            (xy 0.8636 -10.16)
          )
          (stroke (width 0.1524)) (fill (type none))
        )
        (polyline
          (pts
            (xy 1.27 -7.62)
            (xy 0.8636 -7.62)
          )
          (stroke (width 0.1524)) (fill (type none))
        )
        (polyline
          (pts
            (xy 1.27 -5.08)
            (xy 0.8636 -5.08)
          )
          (stroke (width 0.1524)) (fill (type none))
        )
        (polyline
          (pts
            (xy 1.27 -2.54)
            (xy 0.8636 -2.54)
          )
          (stroke (width 0.1524)) (fill (type none))
        )
        (polyline
          (pts
            (xy 1.27 0)
            (xy 0.8636 0)
          )
          (stroke (width 0.1524)) (fill (type none))
        )
        (polyline
          (pts
            (xy 1.27 2.54)
            (xy 0.8636 2.54)
          )
          (stroke (width 0.1524)) (fill (type none))
        )
        (polyline
          (pts
            (xy 1.27 5.08)
            (xy 0.8636 5.08)
          )
          (stroke (width 0.1524)) (fill (type none))
        )
        (polyline
          (pts
            (xy 1.27 7.62)
            (xy 0.8636 7.62)
          )
          (stroke (width 0.1524)) (fill (type none))
        )
        (pin passive line (at 5.08 7.62 180) (length 3.81)
          (name "Pin_1" (effects (font (size 1.27 1.27))))
          (number "1" (effects (font (size 1.27 1.27))))
        )
        (pin passive line (at 5.08 5.08 180) (length 3.81)
          (name "Pin_2" (effects (font (size 1.27 1.27))))
          (number "2" (effects (font (size 1.27 1.27))))
        )
        (pin passive line (at 5.08 2.54 180) (length 3.81)
          (name "Pin_3" (effects (font (size 1.27 1.27))))
          (number "3" (effects (font (size 1.27 1.27))))
        )
        (pin passive line (at 5.08 0 180) (length 3.81)
          (name "Pin_4" (effects (font (size 1.27 1.27))))
          (number "4" (effects (font (size 1.27 1.27))))
        )
        (pin passive line (at 5.08 -2.54 180) (length 3.81)
          (name "Pin_5" (effects (font (size 1.27 1.27))))
          (number "5" (effects (font (size 1.27 1.27))))
        )
        (pin passive line (at 5.08 -5.08 180) (length 3.81)
          (name "Pin_6" (effects (font (size 1.27 1.27))))
          (number "6" (effects (font (size 1.27 1.27))))
        )
        (pin passive line (at 5.08 -7.62 180) (length 3.81)
          (name "Pin_7" (effects (font (size 1.27 1.27))))
          (number "7" (effects (font (size 1.27 1.27))))
        )
        (pin passive line (at 5.08 -10.16 180) (length 3.81)
          (name "Pin_8" (effects (font (size 1.27 1.27))))
          (number "8" (effects (font (size 1.27 1.27))))
        )
      )
    )
    (symbol "Connector_Generic:Conn_02x05_Odd_Even" (pin_names (offset 1.016) hide) (in_bom yes) (on_board yes)
      (property "Reference" "J" (id 0) (at 1.27 7.62 0)
        (effects (font (size 1.27 1.27)))
      )
      (property "Value" "Conn_02x05_Odd_Even" (id 1) (at 1.27 -7.62 0)
        (effects (font (size 1.27 1.27)))
      )
      (property "Footprint" "" (id 2) (at 0 0 0)
        (effects (font (size 1.27 1.27)) hide)
      )
      (property "Datasheet" "~" (id 3) (at 0 0 0)
        (effects (font (size 1.27 1.27)) hide)
      )
      (property "ki_keywords" "connector" (id 4) (at 0 0 0)
        (effects (font (size 1.27 1.27)) hide)
      )
      (property "ki_description" "Generic connector, double row, 02x05, odd/even pin numbering scheme (row 1 odd numbers, row 2 even numbers), script generated (kicad-library-utils/schlib/autogen/connector/)" (id 5) (at 0 0 0)
        (effects (font (size 1.27 1.27)) hide)
      )
      (property "ki_fp_filters" "Connector*:*_2x??_*" (id 6) (at 0 0 0)
        (effects (font (size 1.27 1.27)) hide)
      )
      (symbol "Conn_02x05_Odd_Even_1_1"
        (rectangle (start -1.27 -4.953) (end 0 -5.207)
          (stroke (width 0.1524)) (fill (type none))
        )
        (rectangle (start -1.27 -2.413) (end 0 -2.667)
          (stroke (width 0.1524)) (fill (type none))
        )
        (rectangle (start -1.27 2.667) (end 0 2.413)
          (stroke (width 0.1524)) (fill (type none))
        )
        (rectangle (start -1.27 5.207) (end 0 4.953)
          (stroke (width 0.1524)) (fill (type none))
        )
        (rectangle (start -1.27 6.35) (end 3.81 -6.35)
          (stroke (width 0.254)) (fill (type background))
        )
        (rectangle (start -1.27 0.127) (end 0 -0.127)
          (stroke (width 0.1524)) (fill (type none))
        )
        (rectangle (start 3.81 -4.953) (end 2.54 -5.207)
          (stroke (width 0.1524)) (fill (type none))
        )
        (rectangle (start 3.81 -2.413) (end 2.54 -2.667)
          (stroke (width 0.1524)) (fill (type none))
        )
        (rectangle (start 3.81 2.667) (end 2.54 2.413)
          (stroke (width 0.1524)) (fill (type none))
        )
        (rectangle (start 3.81 5.207) (end 2.54 4.953)
          (stroke (width 0.1524)) (fill (type none))
        )
        (rectangle (start 3.81 0.127) (end 2.54 -0.127)
          (stroke (width 0.1524)) (fill (type none))
        )
        (pin passive line (at -5.08 5.08 0) (length 3.81)
          (name "Pin_1" (effects (font (size 1.27 1.27))))
          (number "1" (effects (font (size 1.27 1.27))))
        )
        (pin passive line (at 7.62 -5.08 180) (length 3.81)
          (name "Pin_10" (effects (font (size 1.27 1.27))))
          (number "10" (effects (font (size 1.27 1.27))))
        )
        (pin passive line (at 7.62 5.08 180) (length 3.81)
          (name "Pin_2" (effects (font (size 1.27 1.27))))
          (number "2" (effects (font (size 1.27 1.27))))
        )
        (pin passive line (at -5.08 2.54 0) (length 3.81)
          (name "Pin_3" (effects (font (size 1.27 1.27))))
          (number "3" (effects (font (size 1.27 1.27))))
        )
        (pin passive line (at 7.62 2.54 180) (length 3.81)
          (name "Pin_4" (effects (font (size 1.27 1.27))))
          (number "4" (effects (font (size 1.27 1.27))))
        )
        (pin passive line (at -5.08 0 0) (length 3.81)
          (name "Pin_5" (effects (font (size 1.27 1.27))))
          (number "5" (effects (font (size 1.27 1.27))))
        )
        (pin passive line (at 7.62 0 180) (length 3.81)
          (name "Pin_6" (effects (font (size 1.27 1.27))))
          (number "6" (effects (font (size 1.27 1.27))))
        )
        (pin passive line (at -5.08 -2.54 0) (length 3.81)
          (name "Pin_7" (effects (font (size 1.27 1.27))))
          (number "7" (effects (font (size 1.27 1.27))))
        )
        (pin passive line (at 7.62 -2.54 180) (length 3.81)
          (name "Pin_8" (effects (font (size 1.27 1.27))))
          (number "8" (effects (font (size 1.27 1.27))))
        )
        (pin passive line (at -5.08 -5.08 0) (length 3.81)
          (name "Pin_9" (effects (font (size 1.27 1.27))))
          (number "9" (effects (font (size 1.27 1.27))))
        )
      )
    )
    (symbol "Connector_Generic:Conn_02x07_Odd_Even" (pin_names (offset 1.016) hide) (in_bom yes) (on_board yes)
      (property "Reference" "J" (id 0) (at 1.27 10.16 0)
        (effects (font (size 1.27 1.27)))
      )
      (property "Value" "Conn_02x07_Odd_Even" (id 1) (at 1.27 -10.16 0)
        (effects (font (size 1.27 1.27)))
      )
      (property "Footprint" "" (id 2) (at 0 0 0)
        (effects (font (size 1.27 1.27)) hide)
      )
      (property "Datasheet" "~" (id 3) (at 0 0 0)
        (effects (font (size 1.27 1.27)) hide)
      )
      (property "ki_keywords" "connector" (id 4) (at 0 0 0)
        (effects (font (size 1.27 1.27)) hide)
      )
      (property "ki_description" "Generic connector, double row, 02x07, odd/even pin numbering scheme (row 1 odd numbers, row 2 even numbers), script generated (kicad-library-utils/schlib/autogen/connector/)" (id 5) (at 0 0 0)
        (effects (font (size 1.27 1.27)) hide)
      )
      (property "ki_fp_filters" "Connector*:*_2x??_*" (id 6) (at 0 0 0)
        (effects (font (size 1.27 1.27)) hide)
      )
      (symbol "Conn_02x07_Odd_Even_1_1"
        (rectangle (start -1.27 -4.953) (end 0 -5.207)
          (stroke (width 0.1524)) (fill (type none))
        )
        (rectangle (start -1.27 -7.493) (end 0 -7.747)
          (stroke (width 0.1524)) (fill (type none))
        )
        (rectangle (start -1.27 -2.413) (end 0 -2.667)
          (stroke (width 0.1524)) (fill (type none))
        )
        (rectangle (start -1.27 2.667) (end 0 2.413)
          (stroke (width 0.1524)) (fill (type none))
        )
        (rectangle (start -1.27 5.207) (end 0 4.953)
          (stroke (width 0.1524)) (fill (type none))
        )
        (rectangle (start -1.27 7.747) (end 0 7.493)
          (stroke (width 0.1524)) (fill (type none))
        )
        (rectangle (start -1.27 8.89) (end 3.81 -8.89)
          (stroke (width 0.254)) (fill (type background))
        )
        (rectangle (start -1.27 0.127) (end 0 -0.127)
          (stroke (width 0.1524)) (fill (type none))
        )
        (rectangle (start 3.81 -4.953) (end 2.54 -5.207)
          (stroke (width 0.1524)) (fill (type none))
        )
        (rectangle (start 3.81 -7.493) (end 2.54 -7.747)
          (stroke (width 0.1524)) (fill (type none))
        )
        (rectangle (start 3.81 -2.413) (end 2.54 -2.667)
          (stroke (width 0.1524)) (fill (type none))
        )
        (rectangle (start 3.81 2.667) (end 2.54 2.413)
          (stroke (width 0.1524)) (fill (type none))
        )
        (rectangle (start 3.81 5.207) (end 2.54 4.953)
          (stroke (width 0.1524)) (fill (type none))
        )
        (rectangle (start 3.81 7.747) (end 2.54 7.493)
          (stroke (width 0.1524)) (fill (type none))
        )
        (rectangle (start 3.81 0.127) (end 2.54 -0.127)
          (stroke (width 0.1524)) (fill (type none))
        )
        (pin passive line (at -5.08 7.62 0) (length 3.81)
          (name "Pin_1" (effects (font (size 1.27 1.27))))
          (number "1" (effects (font (size 1.27 1.27))))
        )
        (pin passive line (at 7.62 -2.54 180) (length 3.81)
          (name "Pin_10" (effects (font (size 1.27 1.27))))
          (number "10" (effects (font (size 1.27 1.27))))
        )
        (pin passive line (at -5.08 -5.08 0) (length 3.81)
          (name "Pin_11" (effects (font (size 1.27 1.27))))
          (number "11" (effects (font (size 1.27 1.27))))
        )
        (pin passive line (at 7.62 -5.08 180) (length 3.81)
          (name "Pin_12" (effects (font (size 1.27 1.27))))
          (number "12" (effects (font (size 1.27 1.27))))
        )
        (pin passive line (at -5.08 -7.62 0) (length 3.81)
          (name "Pin_13" (effects (font (size 1.27 1.27))))
          (number "13" (effects (font (size 1.27 1.27))))
        )
        (pin passive line (at 7.62 -7.62 180) (length 3.81)
          (name "Pin_14" (effects (font (size 1.27 1.27))))
          (number "14" (effects (font (size 1.27 1.27))))
        )
        (pin passive line (at 7.62 7.62 180) (length 3.81)
          (name "Pin_2" (effects (font (size 1.27 1.27))))
          (number "2" (effects (font (size 1.27 1.27))))
        )
        (pin passive line (at -5.08 5.08 0) (length 3.81)
          (name "Pin_3" (effects (font (size 1.27 1.27))))
          (number "3" (effects (font (size 1.27 1.27))))
        )
        (pin passive line (at 7.62 5.08 180) (length 3.81)
          (name "Pin_4" (effects (font (size 1.27 1.27))))
          (number "4" (effects (font (size 1.27 1.27))))
        )
        (pin passive line (at -5.08 2.54 0) (length 3.81)
          (name "Pin_5" (effects (font (size 1.27 1.27))))
          (number "5" (effects (font (size 1.27 1.27))))
        )
        (pin passive line (at 7.62 2.54 180) (length 3.81)
          (name "Pin_6" (effects (font (size 1.27 1.27))))
          (number "6" (effects (font (size 1.27 1.27))))
        )
        (pin passive line (at -5.08 0 0) (length 3.81)
          (name "Pin_7" (effects (font (size 1.27 1.27))))
          (number "7" (effects (font (size 1.27 1.27))))
        )
        (pin passive line (at 7.62 0 180) (length 3.81)
          (name "Pin_8" (effects (font (size 1.27 1.27))))
          (number "8" (effects (font (size 1.27 1.27))))
        )
        (pin passive line (at -5.08 -2.54 0) (length 3.81)
          (name "Pin_9" (effects (font (size 1.27 1.27))))
          (number "9" (effects (font (size 1.27 1.27))))
        )
      )
    )
    (symbol "Device:C" (pin_numbers hide) (pin_names (offset 0.254)) (in_bom yes) (on_board yes)
      (property "Reference" "C" (id 0) (at 0.635 2.54 0)
        (effects (font (size 1.27 1.27)) (justify left))
      )
      (property "Value" "C" (id 1) (at 0.635 -2.54 0)
        (effects (font (size 1.27 1.27)) (justify left))
      )
      (property "Footprint" "" (id 2) (at 0.9652 -3.81 0)
        (effects (font (size 1.27 1.27)) hide)
      )
      (property "Datasheet" "~" (id 3) (at 0 0 0)
        (effects (font (size 1.27 1.27)) hide)
      )
      (property "ki_keywords" "cap capacitor" (id 4) (at 0 0 0)
        (effects (font (size 1.27 1.27)) hide)
      )
      (property "ki_description" "Unpolarized capacitor" (id 5) (at 0 0 0)
        (effects (font (size 1.27 1.27)) hide)
      )
      (property "ki_fp_filters" "C_*" (id 6) (at 0 0 0)
        (effects (font (size 1.27 1.27)) hide)
      )
      (symbol "C_0_1"
        (polyline
          (pts
            (xy -2.032 -0.762)
            (xy 2.032 -0.762)
          )
          (stroke (width 0.508)) (fill (type none))
        )
        (polyline
          (pts
            (xy -2.032 0.762)
            (xy 2.032 0.762)
          )
          (stroke (width 0.508)) (fill (type none))
        )
      )
      (symbol "C_1_1"
        (pin passive line (at 0 3.81 270) (length 2.794)
          (name "~" (effects (font (size 1.27 1.27))))
          (number "1" (effects (font (size 1.27 1.27))))
        )
        (pin passive line (at 0 -3.81 90) (length 2.794)
          (name "~" (effects (font (size 1.27 1.27))))
          (number "2" (effects (font (size 1.27 1.27))))
        )
      )
    )
    (symbol "Device:R" (pin_numbers hide) (pin_names (offset 0)) (in_bom yes) (on_board yes)
      (property "Reference" "R" (id 0) (at 2.032 0 90)
        (effects (font (size 1.27 1.27)))
      )
      (property "Value" "R" (id 1) (at 0 0 90)
        (effects (font (size 1.27 1.27)))
      )
      (property "Footprint" "" (id 2) (at -1.778 0 90)
        (effects (font (size 1.27 1.27)) hide)
      )
      (property "Datasheet" "~" (id 3) (at 0 0 0)
        (effects (font (size 1.27 1.27)) hide)
      )
      (property "ki_keywords" "R res resistor" (id 4) (at 0 0 0)
        (effects (font (size 1.27 1.27)) hide)
      )
      (property "ki_description" "Resistor" (id 5) (at 0 0 0)
        (effects (font (size 1.27 1.27)) hide)
      )
      (property "ki_fp_filters" "R_*" (id 6) (at 0 0 0)
        (effects (font (size 1.27 1.27)) hide)
      )
      (symbol "R_0_1"
        (rectangle (start -1.016 -2.54) (end 1.016 2.54)
          (stroke (width 0.254)) (fill (type none))
        )
      )
      (symbol "R_1_1"
        (pin passive line (at 0 3.81 270) (length 1.27)
          (name "~" (effects (font (size 1.27 1.27))))
          (number "1" (effects (font (size 1.27 1.27))))
        )
        (pin passive line (at 0 -3.81 90) (length 1.27)
          (name "~" (effects (font (size 1.27 1.27))))
          (number "2" (effects (font (size 1.27 1.27))))
        )
      )
    )
    (symbol "Interface_CAN_LIN:TCAN332G" (in_bom yes) (on_board yes)
      (property "Reference" "U" (id 0) (at -10.16 8.89 0)
        (effects (font (size 1.27 1.27)) (justify left))
      )
      (property "Value" "TCAN332G" (id 1) (at 2.54 8.89 0)
        (effects (font (size 1.27 1.27)) (justify left))
      )
      (property "Footprint" "" (id 2) (at 0 -12.7 0)
        (effects (font (size 1.27 1.27) italic) hide)
      )
      (property "Datasheet" "http://www.ti.com/lit/ds/symlink/tcan337.pdf" (id 3) (at 0 0 0)
        (effects (font (size 1.27 1.27)) hide)
      )
      (property "ki_keywords" "High-Speed CAN Transceiver" (id 4) (at 0 0 0)
        (effects (font (size 1.27 1.27)) hide)
      )
      (property "ki_description" "High-Speed CAN Transceiver with CAN FD, 5Mbps, 3.3V supply, SOT-23-8/SOIC-8" (id 5) (at 0 0 0)
        (effects (font (size 1.27 1.27)) hide)
      )
      (symbol "TCAN332G_0_1"
        (rectangle (start -10.16 7.62) (end 10.16 -7.62)
          (stroke (width 0.254)) (fill (type background))
        )
      )
      (symbol "TCAN332G_1_1"
        (pin input line (at -12.7 5.08 0) (length 2.54)
          (name "TXD" (effects (font (size 1.27 1.27))))
          (number "1" (effects (font (size 1.27 1.27))))
        )
        (pin power_in line (at 0 -10.16 90) (length 2.54)
          (name "GND" (effects (font (size 1.27 1.27))))
          (number "2" (effects (font (size 1.27 1.27))))
        )
        (pin power_in line (at 0 10.16 270) (length 2.54)
          (name "VCC" (effects (font (size 1.27 1.27))))
          (number "3" (effects (font (size 1.27 1.27))))
        )
        (pin tri_state line (at -12.7 2.54 0) (length 2.54)
          (name "RXD" (effects (font (size 1.27 1.27))))
          (number "4" (effects (font (size 1.27 1.27))))
        )
        (pin unconnected line (at -10.16 -2.54 0) (length 2.54) hide
          (name "NC" (effects (font (size 1.27 1.27))))
          (number "5" (effects (font (size 1.27 1.27))))
        )
        (pin bidirectional line (at 12.7 -2.54 180) (length 2.54)
          (name "CANL" (effects (font (size 1.27 1.27))))
          (number "6" (effects (font (size 1.27 1.27))))
        )
        (pin bidirectional line (at 12.7 2.54 180) (length 2.54)
          (name "CANH" (effects (font (size 1.27 1.27))))
          (number "7" (effects (font (size 1.27 1.27))))
        )
        (pin unconnected line (at -10.16 -5.08 0) (length 2.54) hide
          (name "NC" (effects (font (size 1.27 1.27))))
          (number "8" (effects (font (size 1.27 1.27))))
        )
      )
    )
  )


  (label "CANTX" (at 31.75 40.64 180)
    (effects (font (size 1.27 1.27)) (justify right bottom))
  )
  (label "CANRX" (at 31.75 43.18 180)
    (effects (font (size 1.27 1.27)) (justify right bottom))
  )
  (label "CAN3v3" (at 36.83 74.93 180)
    (effects (font (size 1.27 1.27)) (justify right bottom))
  )
  (label "CANGND" (at 36.83 82.55 180)
    (effects (font (size 1.27 1.27)) (justify right bottom))
  )
  (label "CAN3v3" (at 44.45 35.56 0)
    (effects (font (size 1.27 1.27)) (justify left bottom))
  )
  (label "CANGND" (at 44.45 55.88 270)
    (effects (font (size 1.27 1.27)) (justify right bottom))
  )
  (label "CAN3v3" (at 49.53 74.93 0)
    (effects (font (size 1.27 1.27)) (justify left bottom))
  )
  (label "CANRX" (at 49.53 77.47 0)
    (effects (font (size 1.27 1.27)) (justify left bottom))
  )
  (label "CANTX" (at 49.53 80.01 0)
    (effects (font (size 1.27 1.27)) (justify left bottom))
  )
  (label "CANGND" (at 49.53 82.55 0)
    (effects (font (size 1.27 1.27)) (justify left bottom))
  )
  (label "CANH" (at 57.15 43.18 0)
    (effects (font (size 1.27 1.27)) (justify left bottom))
  )
  (label "CANL" (at 57.15 48.26 0)
    (effects (font (size 1.27 1.27)) (justify left bottom))
  )
  (label "CANH" (at 71.12 29.21 0)
    (effects (font (size 1.27 1.27)) (justify left bottom))
  )
  (label "CANL" (at 71.12 36.83 270)
    (effects (font (size 1.27 1.27)) (justify right bottom))
  )
  (label "CANL" (at 73.66 66.04 180)
    (effects (font (size 1.27 1.27)) (justify right bottom))
  )
  (label "CANH" (at 73.66 68.58 180)
    (effects (font (size 1.27 1.27)) (justify right bottom))
  )
  (label "CANGND" (at 73.66 71.12 180)
    (effects (font (size 1.27 1.27)) (justify right bottom))
  )
  (label "CAN3v3" (at 86.36 30.48 0)
    (effects (font (size 1.27 1.27)) (justify left bottom))
  )
  (label "CANGND" (at 86.36 38.1 0)
    (effects (font (size 1.27 1.27)) (justify left bottom))
  )

  (global_label "GND" (shape passive) (at 144.78 31.75 0)
    (effects (font (size 1.27 1.27)) (justify left))
  )
  (global_label "USART_TX" (shape passive) (at 144.78 34.29 0)
    (effects (font (size 1.27 1.27)) (justify left))
  )
  (global_label "USART_RX" (shape passive) (at 144.78 36.83 0)
    (effects (font (size 1.27 1.27)) (justify left))
  )
  (global_label "3v3" (shape passive) (at 146.05 55.88 0)
    (effects (font (size 1.27 1.27)) (justify left))
  )
  (global_label "SWCLK" (shape passive) (at 146.05 58.42 0)
    (effects (font (size 1.27 1.27)) (justify left))
  )
  (global_label "GND" (shape passive) (at 146.05 60.96 0)
    (effects (font (size 1.27 1.27)) (justify left))
  )
  (global_label "SWIO" (shape passive) (at 146.05 63.5 0)
    (effects (font (size 1.27 1.27)) (justify left))
  )
  (global_label "~RST" (shape passive) (at 146.05 66.04 0)
    (effects (font (size 1.27 1.27)) (justify left))
  )
  (global_label "SWO" (shape passive) (at 146.05 68.58 0)
    (effects (font (size 1.27 1.27)) (justify left))
  )
  (global_label "USART_TX" (shape passive) (at 146.05 71.12 0)
    (effects (font (size 1.27 1.27)) (justify left))
  )
  (global_label "USART_RX" (shape passive) (at 146.05 73.66 0)
    (effects (font (size 1.27 1.27)) (justify left))
  )
  (global_label "SWO" (shape passive) (at 190.5 55.88 180)
    (effects (font (size 1.27 1.27)) (justify right))
  )
  (global_label "~RST" (shape passive) (at 190.5 58.42 180)
    (effects (font (size 1.27 1.27)) (justify right))
  )
  (global_label "SWIO" (shape passive) (at 190.5 60.96 180)
    (effects (font (size 1.27 1.27)) (justify right))
  )
  (global_label "GND" (shape passive) (at 190.5 63.5 180)
    (effects (font (size 1.27 1.27)) (justify right))
  )
  (global_label "SWCLK" (shape passive) (at 190.5 66.04 180)
    (effects (font (size 1.27 1.27)) (justify right))
  )
  (global_label "3v3" (shape passive) (at 190.5 68.58 180)
    (effects (font (size 1.27 1.27)) (justify right))
  )

  (symbol (lib_id "Device:R") (at 71.12 33.02 0) (unit 1)
    (in_bom yes) (on_board yes)
    (uuid "df745017-da3a-4d0d-8809-c6772697f676")
    (property "Reference" "R1" (id 0) (at 73.66 31.75 0)
      (effects (font (size 1.27 1.27)) (justify left))
    )
    (property "Value" "120R" (id 1) (at 73.66 33.02 0)
      (effects (font (size 1.27 1.27)) (justify left))
    )
    (property "Footprint" "Resistor_SMD:R_0805_2012Metric" (id 2) (at 69.342 33.02 90)
      (effects (font (size 1.27 1.27)) hide)
    )
    (property "Datasheet" "~" (id 3) (at 71.12 33.02 0)
      (effects (font (size 1.27 1.27)) hide)
    )
  )

  (symbol (lib_id "Device:C") (at 86.36 34.29 0) (unit 1)
    (in_bom yes) (on_board yes)
    (uuid "b4a3b465-2bfb-45ba-8599-e340b3733932")
    (property "Reference" "C1" (id 0) (at 90.17 33.02 0)
      (effects (font (size 1.27 1.27)) (justify left))
    )
    (property "Value" "1uF" (id 1) (at 90.17 34.29 0)
      (effects (font (size 1.27 1.27)) (justify left))
    )
    (property "Footprint" "Capacitor_SMD:C_0805_2012Metric" (id 2) (at 87.3252 38.1 0)
      (effects (font (size 1.27 1.27)) hide)
    )
    (property "Datasheet" "~" (id 3) (at 86.36 34.29 0)
      (effects (font (size 1.27 1.27)) hide)
    )
  )

  (symbol (lib_id "Connector:Conn_01x03_Male") (at 139.7 34.29 0) (unit 1)
    (in_bom yes) (on_board yes)
    (uuid "5bbcb1a3-257a-4711-a678-7b3adba55c6a")
    (property "Reference" "J1" (id 0) (at 143.51 26.67 0))
    (property "Value" "USART" (id 1) (at 143.51 29.21 0))
    (property "Footprint" "Connector_PinHeader_2.54mm:PinHeader_1x03_P2.54mm_Vertical" (id 2) (at 139.7 34.29 0)
      (effects (font (size 1.27 1.27)) hide)
    )
    (property "Datasheet" "~" (id 3) (at 139.7 34.29 0)
      (effects (font (size 1.27 1.27)) hide)
    )
  )

  (symbol (lib_id "Connector:Conn_01x06_Male") (at 195.58 63.5 180) (unit 1)
    (in_bom yes) (on_board yes)
    (uuid "74af7c6d-8f5f-46eb-a0bb-a58856c65d01")
    (property "Reference" "J3" (id 0) (at 196.85 59.69 0)
      (effects (font (size 1.27 1.27)) (justify right))
    )
    (property "Value" "SWD" (id 1) (at 196.85 62.23 0)
      (effects (font (size 1.27 1.27)) (justify right))
    )
    (property "Footprint" "Connector_PinHeader_2.54mm:PinHeader_1x06_P2.54mm_Vertical" (id 2) (at 195.58 63.5 0)
      (effects (font (size 1.27 1.27)) hide)
    )
    (property "Datasheet" "~" (id 3) (at 195.58 63.5 0)
      (effects (font (size 1.27 1.27)) hide)
    )
  )

  (symbol (lib_id "Connector:Conn_01x08_Male") (at 140.97 63.5 0) (unit 1)
    (in_bom yes) (on_board yes)
    (uuid "a283bada-3d5a-4eb2-9897-f1f028079967")
    (property "Reference" "J2" (id 0) (at 144.78 50.8 0))
    (property "Value" "Conn_01x08_Male" (id 1) (at 144.78 53.34 0))
    (property "Footprint" "Connector_FFC-FPC:Hirose_FH12-8S-0.5SH_1x08-1MP_P0.50mm_Horizontal" (id 2) (at 140.97 63.5 0)
      (effects (font (size 1.27 1.27)) hide)
    )
    (property "Datasheet" "~" (id 3) (at 140.97 63.5 0)
      (effects (font (size 1.27 1.27)) hide)
    )
  )

  (symbol (lib_id "Connector_Generic:Conn_02x05_Odd_Even") (at 78.74 71.12 0) (unit 1)
    (in_bom yes) (on_board yes)
    (uuid "27282d45-e3d8-4654-96db-293b852bf144")
    (property "Reference" "J5" (id 0) (at 80.01 59.69 0))
    (property "Value" "CAN" (id 1) (at 80.01 62.23 0))
    (property "Footprint" "Connector_PinSocket_2.54mm:PinSocket_2x05_P2.54mm_Vertical" (id 2) (at 78.74 71.12 0)
      (effects (font (size 1.27 1.27)) hide)
    )
    (property "Datasheet" "~" (id 3) (at 78.74 71.12 0)
      (effects (font (size 1.27 1.27)) hide)
    )
  )

  (symbol (lib_id "Connector_Generic:Conn_02x07_Odd_Even") (at 41.91 82.55 0) (unit 1)
    (in_bom yes) (on_board yes)
    (uuid "5aeaf011-72ac-494d-aac7-221acf75236f")
    (property "Reference" "J4" (id 0) (at 43.18 68.58 0))
    (property "Value" "IO" (id 1) (at 43.18 71.12 0))
    (property "Footprint" "Connector_PinSocket_2.54mm:PinSocket_2x07_P2.54mm_Vertical" (id 2) (at 41.91 82.55 0)
      (effects (font (size 1.27 1.27)) hide)
    )
    (property "Datasheet" "~" (id 3) (at 41.91 82.55 0)
      (effects (font (size 1.27 1.27)) hide)
    )
  )

  (symbol (lib_id "Interface_CAN_LIN:TCAN332G") (at 44.45 45.72 0) (unit 1)
    (in_bom yes) (on_board yes)
    (uuid "ace17fb0-3b26-4ed3-9f41-b122c832a112")
    (property "Reference" "U1" (id 0) (at 44.45 30.48 0))
    (property "Value" "TCAN332G" (id 1) (at 34.29 33.02 0))
    (property "Footprint" "Package_SO:SOIC-8_5.23x5.23mm_P1.27mm" (id 2) (at 44.45 58.42 0)
      (effects (font (size 1.27 1.27) italic) hide)
    )
    (property "Datasheet" "http://www.ti.com/lit/ds/symlink/tcan337.pdf" (id 3) (at 44.45 45.72 0)
      (effects (font (size 1.27 1.27)) hide)
    )
  )

  (sheet_instances
    (path "/" (page "1"))
  )

  (symbol_instances
    (path "/b4a3b465-2bfb-45ba-8599-e340b3733932"
      (reference "C1") (unit 1) (value "1uF") (footprint "Capacitor_SMD:C_0805_2012Metric")
    )
    (path "/5bbcb1a3-257a-4711-a678-7b3adba55c6a"
      (reference "J1") (unit 1) (value "USART") (footprint "Connector_PinHeader_2.54mm:PinHeader_1x03_P2.54mm_Vertical")
    )
    (path "/a283bada-3d5a-4eb2-9897-f1f028079967"
      (reference "J2") (unit 1) (value "Conn_01x08_Male") (footprint "Connector_FFC-FPC:Hirose_FH12-8S-0.5SH_1x08-1MP_P0.50mm_Horizontal")
    )
    (path "/74af7c6d-8f5f-46eb-a0bb-a58856c65d01"
      (reference "J3") (unit 1) (value "SWD") (footprint "Connector_PinHeader_2.54mm:PinHeader_1x06_P2.54mm_Vertical")
    )
    (path "/5aeaf011-72ac-494d-aac7-221acf75236f"
      (reference "J4") (unit 1) (value "IO") (footprint "Connector_PinSocket_2.54mm:PinSocket_2x07_P2.54mm_Vertical")
    )
    (path "/27282d45-e3d8-4654-96db-293b852bf144"
      (reference "J5") (unit 1) (value "CAN") (footprint "Connector_PinSocket_2.54mm:PinSocket_2x05_P2.54mm_Vertical")
    )
    (path "/df745017-da3a-4d0d-8809-c6772697f676"
      (reference "R1") (unit 1) (value "120R") (footprint "Resistor_SMD:R_0805_2012Metric")
    )
    (path "/ace17fb0-3b26-4ed3-9f41-b122c832a112"
      (reference "U1") (unit 1) (value "TCAN332G") (footprint "Package_SO:SOIC-8_5.23x5.23mm_P1.27mm")
    )
  )
)
