%TF.GenerationSoftware,KiCad,Pcbnew,(5.99.0-6740-g2fa205f4d)*%
%TF.CreationDate,2020-11-04T03:06:36+01:00*%
%TF.ProjectId,aric_programming_header,61726963-5f70-4726-9f67-72616d6d696e,rev?*%
%TF.SameCoordinates,Original*%
%TF.FileFunction,Paste,Bot*%
%TF.FilePolarity,Positive*%
%FSLAX46Y46*%
G04 Gerber Fmt 4.6, Leading zero omitted, Abs format (unit mm)*
G04 Created by KiCad (PCBNEW (5.99.0-6740-g2fa205f4d)) date 2020-11-04 03:06:36*
%MOMM*%
%LPD*%
G01*
G04 APERTURE LIST*
G04 APERTURE END LIST*
M02*
