%TF.GenerationSoftware,KiCad,Pcbnew,(5.99.0-6740-g2fa205f4d)*%
%TF.CreationDate,2020-11-04T03:06:36+01:00*%
%TF.ProjectId,aric_programming_header,61726963-5f70-4726-9f67-72616d6d696e,rev?*%
%TF.SameCoordinates,Original*%
%TF.FileFunction,Soldermask,Bot*%
%TF.FilePolarity,Negative*%
%FSLAX46Y46*%
G04 Gerber Fmt 4.6, Leading zero omitted, Abs format (unit mm)*
G04 Created by KiCad (PCBNEW (5.99.0-6740-g2fa205f4d)) date 2020-11-04 03:06:36*
%MOMM*%
%LPD*%
G01*
G04 APERTURE LIST*
%ADD10O,1.700000X1.700000*%
%ADD11R,1.700000X1.700000*%
G04 APERTURE END LIST*
D10*
%TO.C,J5*%
X144907000Y-57023000D03*
X144907000Y-59563000D03*
X142367000Y-57023000D03*
X142367000Y-59563000D03*
X139827000Y-57023000D03*
X139827000Y-59563000D03*
X137287000Y-57023000D03*
X137287000Y-59563000D03*
X134747000Y-57023000D03*
D11*
X134747000Y-59563000D03*
%TD*%
D10*
%TO.C,J4*%
X152527000Y-79883000D03*
X155067000Y-79883000D03*
X152527000Y-77343000D03*
X155067000Y-77343000D03*
X152527000Y-74803000D03*
X155067000Y-74803000D03*
X152527000Y-72263000D03*
X155067000Y-72263000D03*
X152527000Y-69723000D03*
X155067000Y-69723000D03*
X152527000Y-67183000D03*
X155067000Y-67183000D03*
X152527000Y-64643000D03*
D11*
X155067000Y-64643000D03*
%TD*%
%TO.C,J3*%
X124460000Y-75946000D03*
D10*
X121920000Y-75946000D03*
X119380000Y-75946000D03*
X116840000Y-75946000D03*
X114300000Y-75946000D03*
X111760000Y-75946000D03*
%TD*%
D11*
%TO.C,J1*%
X105410000Y-74422000D03*
D10*
X105410000Y-71882000D03*
X105410000Y-69342000D03*
%TD*%
M02*
